<svg width="55" height="64" viewBox="0 0 55 64" fill="none" xmlns="http://www.w3.org/2000/svg">
<g clip-path="url(#clip0)">
<path fill-rule="evenodd" clip-rule="evenodd" d="M27.8729 0C26.1053 0 24.6731 1.4328 24.6731 3.1998V60.801C24.6731 62.5686 26.1053 64.0014 27.8729 64.0014C29.6405 64.0014 31.0733 62.5686 31.0733 60.801V3.1998C31.0733 1.4328 29.6405 0 27.8729 0Z" fill="url(#paint0_linear)"/>
<path fill-rule="evenodd" clip-rule="evenodd" d="M12.7871 12.3432V33.372C12.7871 35.1402 14.2199 36.5724 15.9869 36.5724C17.7545 36.5724 19.1873 35.1402 19.1873 33.372V12.3432C19.1873 10.5756 17.7545 9.14337 15.9869 9.14337C14.2199 9.14337 12.7871 10.5756 12.7871 12.3432Z" fill="url(#paint1_linear)"/>
<path fill-rule="evenodd" clip-rule="evenodd" d="M0.901077 21.486V42.5154C0.901077 44.2824 2.33388 45.7158 4.10088 45.7158C5.86788 45.7158 7.30128 44.2824 7.30128 42.5154V21.486C7.30128 19.719 5.86788 18.2862 4.10088 18.2862C2.33388 18.2862 0.901077 19.719 0.901077 21.486Z" fill="url(#paint2_linear)"/>
<path fill-rule="evenodd" clip-rule="evenodd" d="M48.4451 21.486V42.5154C48.4451 44.2824 49.8773 45.7158 51.6449 45.7158C53.4125 45.7158 54.8447 44.2824 54.8447 42.5154V21.486C54.8447 19.719 53.4125 18.2862 51.6449 18.2862C49.8773 18.2862 48.4451 19.719 48.4451 21.486Z" fill="url(#paint3_linear)"/>
<path fill-rule="evenodd" clip-rule="evenodd" d="M36.5591 30.6294V51.6582C36.5591 53.4252 37.9913 54.8586 39.7589 54.8586C41.5265 54.8586 42.9587 53.4252 42.9587 51.6582V30.6294C42.9587 28.8618 41.5265 27.429 39.7589 27.429C37.9913 27.429 36.5591 28.8618 36.5591 30.6294Z" fill="url(#paint4_linear)"/>
</g>
<defs>
<linearGradient id="paint0_linear" x1="27.8729" y1="6.018e-05" x2="27.8729" y2="64.0016" gradientUnits="userSpaceOnUse">
<stop stop-color="#FF29FE"/>
<stop offset="1" stop-color="#A616F4"/>
</linearGradient>
<linearGradient id="paint1_linear" x1="15.9869" y1="9.1434" x2="15.9869" y2="36.5724" gradientUnits="userSpaceOnUse">
<stop stop-color="#FF29FE"/>
<stop offset="1" stop-color="#A616F4"/>
</linearGradient>
<linearGradient id="paint2_linear" x1="4.10092" y1="18.2862" x2="4.10092" y2="45.7159" gradientUnits="userSpaceOnUse">
<stop stop-color="#FF29FE"/>
<stop offset="1" stop-color="#A616F4"/>
</linearGradient>
<linearGradient id="paint3_linear" x1="51.6446" y1="18.2862" x2="51.6446" y2="45.7159" gradientUnits="userSpaceOnUse">
<stop stop-color="#FF29FE"/>
<stop offset="1" stop-color="#A616F4"/>
</linearGradient>
<linearGradient id="paint4_linear" x1="39.7586" y1="27.429" x2="39.7586" y2="54.8587" gradientUnits="userSpaceOnUse">
<stop stop-color="#FF29FE"/>
<stop offset="1" stop-color="#A616F4"/>
</linearGradient>
<clipPath id="clip0">
<rect width="55" height="64" fill="white"/>
</clipPath>
</defs>
</svg>
