<svg width="1440" height="926" fill="none" version="1.1" viewBox="0 0 1440 926" xmlns="http://www.w3.org/2000/svg" xmlns:xlink="http://www.w3.org/1999/xlink">
 <g>
  <path d="m0 0h1440v810s-348 116-720 116-720-116-720-116z" fill="#f0f3f6"/>
  <!-- <circle cx="1140" cy="679" r="10" fill="#ff29fe"/>
  <circle cx="195" cy="501" r="10" fill="#a616f4"/>
  <circle cx="491" cy="52" r="10" fill="#a616f4"/>
  <circle cx="1338" cy="516" r="10" fill="#f4de14"/>
  <circle transform="rotate(179.57 359.04 415.04)" cx="359.04" cy="415.04" r="5" fill="#ff29fe"/>
  <circle transform="rotate(179.57 1043 415.04)" cx="1043" cy="415.04" r="5" fill="#a616f4"/>
  <circle transform="rotate(179.57 731.04 103.04)" cx="731.04" cy="103.04" r="5" fill="#f4de14"/>
  <circle transform="rotate(179.57 1205 501.04)" cx="1205" cy="501.04" r="5" fill="#1689f4"/>
  <circle transform="rotate(48.554 373.88 709.88)" cx="373.88" cy="709.88" r="7" fill="#ff29fe"/>
  <circle transform="rotate(48.554 110.88 292.88)" cx="110.88" cy="292.88" r="7" fill="#1689f4"/>
  <circle transform="rotate(48.554 928.88 40.88)" cx="928.88" cy="40.881" r="7" fill="#ff29fe"/>
  <circle transform="rotate(48.554 100.88 658.88)" cx="100.88" cy="658.88" r="7" fill="#f4de14"/> -->
 </g>
</svg>
